{
  "content": "the mental model i have adopted for likes, reposts and zaps is as follows:\n\nlike = good\nrepost = very good\nzap = excellent\n\non a 5-point scale:\n\nlike = 3\nrepost = 4\nzap = 5",
  "created_at": 1679164507,
  "id": "97a2eadd56ae222d1caa32a84c01c9d989f414fc6a0219088d21d93dff41338f",
  "kind": 1,
  "pubkey": "c708943ea349519dcf56b2a5c138fd9ed064ad65ddecae6394eabd87a62f1770",
  "sig": "ed0afad7eafcc7c3f764c26a0c6f2e27fd591c1bbd2d16a5b83a202589f1dff7024bf86a60553c7d44047b18b12c5c06ff9045be9419a6c9f1bfe56a97c6aacc",
  "tags": []
}