{
  "content": "#Nostrica https://nostr.build/i/nostr.build_2d9e8e5a6f3018f3f6c77fbb733403f64e080878958315a16feef7d270633640.jpg",
  "created_at": 1679237350,
  "id": "2e8c0baeae2642ad200e44bc94780e076c41aeaeb39e0deb12d8d1b24dbe614f",
  "kind": 1,
  "pubkey": "c48e29f04b482cc01ca1f9ef8c86ef8318c059e0e9353235162f080f26e14c11",
  "sig": "43bd474e7e4f1c9621cbbfd3a9c38db5a230b7f2e32d05f6a7a47e83bbe899a020645e11d46424469031f2e7e6bf63843e0050302525e2b75c8a4e14de5a89f0",
  "tags": [
    [
      "t",
      "nostrica"
    ]
  ]
}